%YAML 1.1
%TAG !u! tag:unity3d.com,2011:
--- !u!114 &11400000
MonoBehaviour:
  m_ObjectHideFlags: 0
  m_PrefabParentObject: {fileID: 0}
  m_PrefabInternal: {fileID: 0}
  m_GameObject: {fileID: 0}
  m_Enabled: 1
  m_EditorHideFlags: 0
  m_Script: {fileID: 11500000, guid: ea572e070e91ab3498a4f87b7fe54be0, type: 3}
  m_Name: longbuzz
  m_EditorClassIdentifier: 
  path: /countdown/longbuzz
  id: '{4ea706fc-c6e7-40e9-810c-9a43d975f54a}'
